Lab05/simulation/qsim/digitalclk.msim.vcd
$comment
	File created using the following command:
		vcd file digitalclk.msim.vcd -direction
$end
$date
	Fri Nov 08 19:00:51 2019
$end
$version
	ModelSim Version 10.5b
$end
$timescale
	1ps
$end

$scope module FINAL_vlg_vec_tst $end
$var reg 1 ! clean $end
$var reg 1 " clk $end
$var reg 1 # load $end
$var wire 1 $ a1 $end
$var wire 1 % a2 $end
$var wire 1 & a3 $end
$var wire 1 ' a4 $end
$var wire 1 ( a5 $end
$var wire 1 ) a6 $end
$var wire 1 * a7 $end
$var wire 1 + b1 $end
$var wire 1 , b2 $end
$var wire 1 - b3 $end
$var wire 1 . b4 $end
$var wire 1 / b5 $end
$var wire 1 0 b6 $end
$var wire 1 1 b7 $end
$var wire 1 2 m1 $end
$var wire 1 3 m2 $end
$var wire 1 4 m3 $end
$var wire 1 5 m4 $end
$var wire 1 6 m5 $end
$var wire 1 7 m6 $end
$var wire 1 8 m7 $end
$var wire 1 9 s1 $end
$var wire 1 : s2 $end
$var wire 1 ; s3 $end
$var wire 1 < s4 $end
$var wire 1 = s5 $end
$var wire 1 > s6 $end
$var wire 1 ? s7 $end

$scope module i1 $end
$var wire 1 @ gnd $end
$var wire 1 A vcc $end
$var wire 1 B unknown $end
$var tri1 1 C devclrn $end
$var tri1 1 D devpor $end
$var tri1 1 E devoe $end
$var wire 1 F m1~output_o $end
$var wire 1 G m2~output_o $end
$var wire 1 H m3~output_o $end
$var wire 1 I m4~output_o $end
$var wire 1 J m5~output_o $end
$var wire 1 K m6~output_o $end
$var wire 1 L m7~output_o $end
$var wire 1 M s1~output_o $end
$var wire 1 N s2~output_o $end
$var wire 1 O s3~output_o $end
$var wire 1 P s4~output_o $end
$var wire 1 Q s5~output_o $end
$var wire 1 R s6~output_o $end
$var wire 1 S s7~output_o $end
$var wire 1 T a1~output_o $end
$var wire 1 U a2~output_o $end
$var wire 1 V a3~output_o $end
$var wire 1 W a4~output_o $end
$var wire 1 X a5~output_o $end
$var wire 1 Y a6~output_o $end
$var wire 1 Z a7~output_o $end
$var wire 1 [ b1~output_o $end
$var wire 1 \ b2~output_o $end
$var wire 1 ] b3~output_o $end
$var wire 1 ^ b4~output_o $end
$var wire 1 _ b5~output_o $end
$var wire 1 ` b6~output_o $end
$var wire 1 a b7~output_o $end
$var wire 1 b clk~input_o $end
$var wire 1 c clk~inputclkctrl_outclk $end
$var wire 1 d load~input_o $end
$var wire 1 e inst|inst9~combout $end
$var wire 1 f clean~input_o $end
$var wire 1 g inst|inst23~q $end
$var wire 1 h inst|inst4~combout $end
$var wire 1 i inst|inst15~combout $end
$var wire 1 j inst|inst25~q $end
$var wire 1 k inst|inst18~combout $end
$var wire 1 l inst|inst26~q $end
$var wire 1 m inst|inst12~combout $end
$var wire 1 n inst|inst24~q $end
$var wire 1 o inst36|inst28~0_combout $end
$var wire 1 p inst36|inst9~combout $end
$var wire 1 q inst36|inst23~q $end
$var wire 1 r inst|inst28~combout $end
$var wire 1 s inst36|inst15~0_combout $end
$var wire 1 t inst36|inst25~q $end
$var wire 1 u inst36|inst12~combout $end
$var wire 1 v inst36|inst24~q $end
$var wire 1 w inst21|WideOr6~0_combout $end
$var wire 1 x inst21|WideOr5~0_combout $end
$var wire 1 y inst21|WideOr4~0_combout $end
$var wire 1 z inst21|WideOr3~0_combout $end
$var wire 1 { inst21|WideOr2~0_combout $end
$var wire 1 | inst21|WideOr1~0_combout $end
$var wire 1 } inst21|WideOr0~0_combout $end
$var wire 1 ~ inst34|inst9~combout $end
$var wire 1 !! inst34|inst23~q $end
$var wire 1 "! inst34|inst4~combout $end
$var wire 1 #! inst34|inst15~combout $end
$var wire 1 $! inst34|inst25~q $end
$var wire 1 %! inst34|inst18~combout $end
$var wire 1 &! inst34|inst26~q $end
$var wire 1 '! inst34|inst12~combout $end
$var wire 1 (! inst34|inst24~q $end
$var wire 1 )! inst34|inst28~combout $end
$var wire 1 *! inst35|inst9~0_combout $end
$var wire 1 +! inst35|inst23~q $end
$var wire 1 ,! inst35|inst15~0_combout $end
$var wire 1 -! inst35|inst25~q $end
$var wire 1 .! inst35|inst12~combout $end
$var wire 1 /! inst35|inst24~q $end
$var wire 1 0! inst23|WideOr6~0_combout $end
$var wire 1 1! inst23|WideOr5~0_combout $end
$var wire 1 2! inst23|WideOr4~0_combout $end
$var wire 1 3! inst23|WideOr3~0_combout $end
$var wire 1 4! inst23|WideOr2~0_combout $end
$var wire 1 5! inst23|WideOr1~0_combout $end
$var wire 1 6! inst23|WideOr0~0_combout $end
$var wire 1 7! inst20|WideOr6~0_combout $end
$var wire 1 8! inst20|WideOr5~0_combout $end
$var wire 1 9! inst20|WideOr4~0_combout $end
$var wire 1 :! inst20|WideOr3~0_combout $end
$var wire 1 ;! inst20|WideOr2~0_combout $end
$var wire 1 <! inst20|WideOr1~0_combout $end
$var wire 1 =! inst20|WideOr0~0_combout $end
$var wire 1 >! inst22|WideOr6~0_combout $end
$var wire 1 ?! inst22|WideOr5~0_combout $end
$var wire 1 @! inst22|WideOr4~0_combout $end
$var wire 1 A! inst22|WideOr3~0_combout $end
$var wire 1 B! inst22|WideOr2~0_combout $end
$var wire 1 C! inst22|WideOr1~0_combout $end
$var wire 1 D! inst22|WideOr0~0_combout $end
$upscope $end
$upscope $end
$enddefinitions $end
#0
$dumpvars
1!
0"
1#
0$
0%
0&
0'
0(
0)
1*
0+
0,
0-
0.
0/
00
11
02
03
04
05
06
07
18
09
0:
0;
0<
0=
0>
1?
0@
1A
xB
1C
1D
1E
0F
0G
0H
0I
0J
0K
1L
0M
0N
0O
0P
0Q
0R
1S
0T
0U
0V
0W
0X
0Y
1Z
0[
0\
0]
0^
0_
0`
1a
0b
0c
1d
1e
1f
0g
0h
0i
0j
0k
0l
0m
0n
0o
0p
0q
0r
0s
0t
0u
0v
0w
0x
0y
0z
0{
0|
1}
0~
0!!
0"!
0#!
0$!
0%!
0&!
0'!
0(!
0)!
0*!
0+!
0,!
0-!
0.!
0/!
00!
01!
02!
03!
04!
05!
16!
07!
08!
09!
0:!
0;!
0<!
0=!
0>!
0?!
0@!
0A!
0B!
0C!
0D!
$end
#5000
1"
1b
1c
1g
1<!
1;!
1:!
17!
1m
0e
1T
1W
1X
1Y
1)
1(
1'
1$
#10000
0"
0b
0c
#15000
1"
1b
1c
1n
0g
1=!
0;!
0:!
19!
07!
1e
0T
1V
0W
0X
0Z
0*
0(
0'
1&
0$
#20000
0"
0b
0c
#25000
1"
1b
1c
1g
1h
1;!
09!
0m
0e
0V
1X
1(
0&
1i
#30000
0"
0b
0c
#35000
1"
1b
1c
0n
1j
0g
0h
0<!
1:!
17!
1k
0i
1e
1T
1W
0Y
0)
1'
1$
0k
1i
#40000
0"
0b
0c
#45000
1"
1b
1c
1g
0:!
18!
07!
1m
0e
0T
1U
0W
0'
1%
0$
#50000
0"
0b
0c
#55000
1"
1b
1c
1n
0g
0;!
1e
0X
0(
#60000
0"
0b
0c
#65000
1"
1b
1c
1g
0=!
1h
1<!
1;!
1:!
08!
0m
0e
0U
1W
1X
1Y
1Z
1*
1)
1(
1'
0%
1k
0i
#70000
0"
0b
0c
#75000
1"
1b
1c
0n
1l
0j
0g
1=!
0h
0<!
0;!
0:!
1i
1e
0W
0X
0Y
0Z
0*
0)
0(
0'
0i
#80000
0"
0b
0c
#85000
1"
1b
1c
1g
1;!
1m
0e
1X
1(
#90000
0"
0b
0c
#95000
1"
1b
1c
1n
0g
1r
0;!
1:!
1p
0m
0k
1W
0X
0(
1'
#100000
0"
0b
0c
#105000
1"
1b
1c
1q
0n
0l
0=!
0r
1|
1{
1z
1w
1u
0:!
1e
0W
1F
1I
1J
1K
1Z
1*
17
16
15
12
0'
0u
#110000
0"
0b
0c
#115000
1"
1b
1c
1g
1<!
1;!
1:!
17!
1m
0e
1T
1W
1X
1Y
1)
1(
1'
1$
#120000
0"
0b
0c
#125000
1"
1b
1c
1n
0g
1=!
0;!
0:!
19!
07!
1e
0T
1V
0W
0X
0Z
0*
0(
0'
1&
0$
#130000
0"
0b
0c
#135000
1"
1b
1c
1g
1h
1;!
09!
0m
0e
0V
1X
1(
0&
1i
#140000
0"
0b
0c
#145000
1"
1b
1c
0n
1j
0g
0h
0<!
1:!
17!
1k
0i
1e
1T
1W
0Y
0)
1'
1$
0k
1i
#150000
0"
0b
0c
#155000
1"
1b
1c
1g
0:!
18!
07!
1m
0e
0T
1U
0W
0'
1%
0$
#160000
0"
0b
0c
#165000
1"
1b
1c
1n
0g
0;!
1e
0X
0(
#170000
0"
0b
0c
#175000
1"
1b
1c
1g
0=!
1h
1<!
1;!
1:!
08!
0m
0e
0U
1W
1X
1Y
1Z
1*
1)
1(
1'
0%
1k
0i
#180000
0"
0b
0c
#185000
1"
1b
1c
0n
1l
0j
0g
1=!
0h
0<!
0;!
0:!
1i
1e
0W
0X
0Y
0Z
0*
0)
0(
0'
0i
#190000
0"
0b
0c
#195000
1"
1b
1c
1g
1;!
1m
0e
1X
1(
#200000
0"
0b
0c
#205000
1"
1b
1c
1n
0g
1r
0;!
1:!
0p
0m
0k
1W
0X
0(
1'
1u
#210000
0"
0b
0c
#215000
1"
1b
1c
1v
0q
0n
0l
0=!
0r
0}
0{
0z
1y
0w
0:!
1e
0W
0F
1H
0I
0J
0L
1Z
1*
08
06
05
14
02
0'
#220000
0"
0b
0c
#225000
1"
1b
1c
1g
1<!
1;!
1:!
17!
1m
0e
1T
1W
1X
1Y
1)
1(
1'
1$
#230000
0"
0b
0c
#235000
1"
1b
1c
1n
0g
1=!
0;!
0:!
19!
07!
1e
0T
1V
0W
0X
0Z
0*
0(
0'
1&
0$
#240000
0"
0b
0c
#245000
1"
1b
1c
1g
1h
1;!
09!
0m
0e
0V
1X
1(
0&
1i
#250000
0"
0b
0c
#255000
1"
1b
1c
0n
1j
0g
0h
0<!
1:!
17!
1k
0i
1e
1T
1W
0Y
0)
1'
1$
0k
1i
#260000
0"
0b
0c
#265000
1"
1b
1c
1g
0:!
18!
07!
1m
0e
0T
1U
0W
0'
1%
0$
#270000
0"
0b
0c
#275000
1"
1b
1c
1n
0g
0;!
1e
0X
0(
#280000
0"
0b
0c
#285000
1"
1b
1c
1g
0=!
1h
1<!
1;!
1:!
08!
0m
0e
0U
1W
1X
1Y
1Z
1*
1)
1(
1'
0%
1k
0i
#290000
0"
0b
0c
#295000
1"
1b
1c
0n
1l
0j
0g
1=!
0h
0<!
0;!
0:!
1i
1e
0W
0X
0Y
0Z
0*
0)
0(
0'
0i
#300000
0"
0b
0c
#305000
1"
1b
1c
1g
1;!
1m
0e
1X
1(
#310000
0"
0b
0c
#315000
1"
1b
1c
1n
0g
1r
0;!
1:!
1p
0m
0k
1W
0X
0(
1'
#320000
0"
0b
0c
#325000
1"
1b
1c
1q
0n
0l
0=!
0r
1{
0y
0u
1s
0:!
1e
0W
0H
1J
1Z
1*
16
04
0'
1u
0s
#330000
0"
0b
0c
#335000
1"
1b
1c
1g
1<!
1;!
1:!
17!
1m
0e
1T
1W
1X
1Y
1)
1(
1'
1$
#340000
0"
0b
0c
#345000
1"
1b
1c
1n
0g
1=!
0;!
0:!
19!
07!
1e
0T
1V
0W
0X
0Z
0*
0(
0'
1&
0$
#350000
0"
0b
0c
#355000
1"
1b
1c
1g
1h
1;!
09!
0m
0e
0V
1X
1(
0&
1i
#360000
0"
0b
0c
#365000
1"
1b
1c
0n
1j
0g
0h
0<!
1:!
17!
1k
0i
1e
1T
1W
0Y
0)
1'
1$
0k
1i
#370000
0"
0b
0c
#375000
1"
1b
1c
1g
0:!
18!
07!
1m
0e
0T
1U
0W
0'
1%
0$
#380000
0"
0b
0c
#385000
1"
1b
1c
1n
0g
0;!
1e
0X
0(
#390000
0"
0b
0c
#395000
1"
1b
1c
1g
0=!
1h
1<!
1;!
1:!
08!
0m
0e
0U
1W
1X
1Y
1Z
1*
1)
1(
1'
0%
1k
0i
#400000
0"
0b
0c
#405000
1"
1b
1c
0n
1l
0j
0g
1=!
0h
0<!
0;!
0:!
1i
1e
0W
0X
0Y
0Z
0*
0)
0(
0'
0i
#410000
0"
0b
0c
#415000
1"
1b
1c
1g
1;!
1m
0e
1X
1(
#420000
0"
0b
0c
#425000
1"
1b
1c
1n
0g
1r
0;!
1:!
0p
0m
0k
1W
0X
0(
1'
0u
1s
#430000
0"
0b
0c
#435000
1"
1b
1c
0v
1t
0q
0n
0l
0=!
0r
0|
1z
1w
0:!
1e
0W
1F
1I
0K
1Z
1*
07
15
12
0'
#440000
0"
0b
0c
#445000
1"
1b
1c
1g
1<!
1;!
1:!
17!
1m
0e
1T
1W
1X
1Y
1)
1(
1'
1$
#450000
0"
0b
0c
#455000
1"
1b
1c
1n
0g
1=!
0;!
0:!
19!
07!
1e
0T
1V
0W
0X
0Z
0*
0(
0'
1&
0$
#460000
0"
0b
0c
#465000
1"
1b
1c
1g
1h
1;!
09!
0m
0e
0V
1X
1(
0&
1i
#470000
0"
0b
0c
#475000
1"
1b
1c
0n
1j
0g
0h
0<!
1:!
17!
1k
0i
1e
1T
1W
0Y
0)
1'
1$
0k
1i
#480000
0"
0b
0c
#485000
1"
1b
1c
1g
0:!
18!
07!
1m
0e
0T
1U
0W
0'
1%
0$
#490000
0"
0b
0c
#495000
1"
1b
1c
1n
0g
0;!
1e
0X
0(
#500000
0"
0b
0c
#505000
1"
1b
1c
1g
0=!
1h
1<!
1;!
1:!
08!
0m
0e
0U
1W
1X
1Y
1Z
1*
1)
1(
1'
0%
1k
0i
#510000
0"
0b
0c
#515000
1"
1b
1c
0n
1l
0j
0g
1=!
0h
0<!
0;!
0:!
1i
1e
0W
0X
0Y
0Z
0*
0)
0(
0'
0i
#520000
0"
0b
0c
#525000
1"
1b
1c
1g
1;!
1m
0e
1X
1(
#530000
0"
0b
0c
#535000
1"
1b
1c
1n
0g
1r
0;!
1:!
1p
0m
0k
1W
0X
0(
1'
#540000
0"
0b
0c
#545000
1"
1b
1c
1q
0n
0l
0=!
0r
0z
1x
0w
1u
0:!
1e
0W
0F
1G
0I
1Z
1*
05
13
02
0'
0u
#550000
0"
0b
0c
#555000
1"
1b
1c
1g
1<!
1;!
1:!
17!
1m
0e
1T
1W
1X
1Y
1)
1(
1'
1$
#560000
0"
0b
0c
#565000
1"
1b
1c
1n
0g
1=!
0;!
0:!
19!
07!
1e
0T
1V
0W
0X
0Z
0*
0(
0'
1&
0$
#570000
0"
0b
0c
#575000
1"
1b
1c
1g
1h
1;!
09!
0m
0e
0V
1X
1(
0&
1i
#580000
0"
0b
0c
#585000
1"
1b
1c
0n
1j
0g
0h
0<!
1:!
17!
1k
0i
1e
1T
1W
0Y
0)
1'
1$
0k
1i
#590000
0"
0b
0c
#595000
1"
1b
1c
1g
0:!
18!
07!
1m
0e
0T
1U
0W
0'
1%
0$
#600000
0"
0b
0c
#605000
1"
1b
1c
1n
0g
0;!
1e
0X
0(
#610000
0"
0b
0c
#615000
1"
1b
1c
1g
0=!
1h
1<!
1;!
1:!
08!
0m
0e
0U
1W
1X
1Y
1Z
1*
1)
1(
1'
0%
1k
0i
#620000
0"
0b
0c
#625000
1"
1b
1c
0n
1l
0j
0g
1=!
0h
0<!
0;!
0:!
1i
1e
0W
0X
0Y
0Z
0*
0)
0(
0'
0i
#630000
0"
0b
0c
#635000
1"
1b
1c
1g
1;!
1m
0e
1X
1(
#640000
0"
0b
0c
#645000
1"
1b
1c
1n
0g
1r
0;!
1:!
0p
0m
0k
1W
0X
0(
1'
1u
#650000
0"
0b
0c
#655000
1"
1b
1c
1v
0q
0n
0l
1o
0=!
0r
1~
0{
0u
0s
0:!
1e
0W
0J
1Z
1*
06
0'
#660000
0"
0b
0c
#665000
1"
1b
1c
1!!
0v
0t
1g
0o
1C!
1B!
1A!
1>!
1'!
1}
0x
1<!
1;!
1:!
17!
1m
0e
1T
1W
1X
1Y
0G
1L
1[
1^
1_
1`
10
1/
1.
1+
18
03
1)
1(
1'
1$
0'!
#670000
0"
0b
0c
#675000
1"
1b
1c
1n
0g
1=!
0;!
0:!
19!
07!
1e
0T
1V
0W
0X
0Z
0*
0(
0'
1&
0$
#680000
0"
0b
0c
#685000
1"
1b
1c
1g
1h
1;!
09!
0m
0e
0V
1X
1(
0&
1i
#690000
0"
0b
0c
#695000
1"
1b
1c
0n
1j
0g
0h
0<!
1:!
17!
1k
0i
1e
1T
1W
0Y
0)
1'
1$
0k
1i
#700000
0"
0b
0c
#705000
1"
1b
1c
1g
0:!
18!
07!
1m
0e
0T
1U
0W
0'
1%
0$
#710000
0"
0b
0c
#715000
1"
1b
1c
1n
0g
0;!
1e
0X
0(
#720000
0"
0b
0c
#725000
1"
1b
1c
1g
0=!
1h
1<!
1;!
1:!
08!
0m
0e
0U
1W
1X
1Y
1Z
1*
1)
1(
1'
0%
1k
0i
#730000
0"
0b
0c
#735000
1"
1b
1c
0n
1l
0j
0g
1=!
0h
0<!
0;!
0:!
1i
1e
0W
0X
0Y
0Z
0*
0)
0(
0'
0i
#740000
0"
0b
0c
#745000
1"
1b
1c
1g
1;!
1m
0e
1X
1(
#750000
0"
0b
0c
#755000
1"
1b
1c
1n
0g
1r
0;!
1:!
1p
0m
0k
1W
0X
0(
1'
#760000
0"
0b
0c
#765000
1"
1b
1c
1q
0n
0l
0=!
0r
1|
1{
1z
1w
1u
0:!
1e
0W
1F
1I
1J
1K
1Z
1*
17
16
15
12
0'
0u
#770000
0"
0b
0c
#775000
1"
1b
1c
1g
1<!
1;!
1:!
17!
1m
0e
1T
1W
1X
1Y
1)
1(
1'
1$
#780000
0"
0b
0c
#785000
1"
1b
1c
1n
0g
1=!
0;!
0:!
19!
07!
1e
0T
1V
0W
0X
0Z
0*
0(
0'
1&
0$
#790000
0"
0b
0c
#795000
1"
1b
1c
1g
1h
1;!
09!
0m
0e
0V
1X
1(
0&
1i
#800000
0"
0b
0c
#805000
1"
1b
1c
0n
1j
0g
0h
0<!
1:!
17!
1k
0i
1e
1T
1W
0Y
0)
1'
1$
0k
1i
#810000
0"
0b
0c
#815000
1"
1b
1c
1g
0:!
18!
07!
1m
0e
0T
1U
0W
0'
1%
0$
#820000
0"
0b
0c
#825000
1"
1b
1c
1n
0g
0;!
1e
0X
0(
#830000
0"
0b
0c
#835000
1"
1b
1c
1g
0=!
1h
1<!
1;!
1:!
08!
0m
0e
0U
1W
1X
1Y
1Z
1*
1)
1(
1'
0%
1k
0i
#840000
0"
0b
0c
#845000
1"
1b
1c
0n
1l
0j
0g
1=!
0h
0<!
0;!
0:!
1i
1e
0W
0X
0Y
0Z
0*
0)
0(
0'
0i
#850000
0"
0b
0c
#855000
1"
1b
1c
1g
1;!
1m
0e
1X
1(
#860000
0"
0b
0c
#865000
1"
1b
1c
1n
0g
1r
0;!
1:!
0p
0m
0k
1W
0X
0(
1'
1u
#870000
0"
0b
0c
#875000
1"
1b
1c
1v
0q
0n
0l
0=!
0r
0}
0{
0z
1y
0w
0:!
1e
0W
0F
1H
0I
0J
0L
1Z
1*
08
06
05
14
02
0'
#880000
0"
0b
0c
#885000
1"
1b
1c
1g
1<!
1;!
1:!
17!
1m
0e
1T
1W
1X
1Y
1)
1(
1'
1$
#890000
0"
0b
0c
#895000
1"
1b
1c
1n
0g
1=!
0;!
0:!
19!
07!
1e
0T
1V
0W
0X
0Z
0*
0(
0'
1&
0$
#900000
0"
0b
0c
#905000
1"
1b
1c
1g
1h
1;!
09!
0m
0e
0V
1X
1(
0&
1i
#910000
0"
0b
0c
#915000
1"
1b
1c
0n
1j
0g
0h
0<!
1:!
17!
1k
0i
1e
1T
1W
0Y
0)
1'
1$
0k
1i
#920000
0"
0b
0c
#925000
1"
1b
1c
1g
0:!
18!
07!
1m
0e
0T
1U
0W
0'
1%
0$
#930000
0"
0b
0c
#935000
1"
1b
1c
1n
0g
0;!
1e
0X
0(
#940000
0"
0b
0c
#945000
1"
1b
1c
1g
0=!
1h
1<!
1;!
1:!
08!
0m
0e
0U
1W
1X
1Y
1Z
1*
1)
1(
1'
0%
1k
0i
#950000
0"
0b
0c
#955000
1"
1b
1c
0n
1l
0j
0g
1=!
0h
0<!
0;!
0:!
1i
1e
0W
0X
0Y
0Z
0*
0)
0(
0'
0i
#960000
0"
0b
0c
#965000
1"
1b
1c
1g
1;!
1m
0e
1X
1(
#970000
0"
0b
0c
#975000
1"
1b
1c
1n
0g
1r
0;!
1:!
1p
0m
0k
1W
0X
0(
1'
#980000
0"
0b
0c
#985000
1"
1b
1c
1q
0n
0l
0=!
0r
1{
0y
0u
1s
0:!
1e
0W
0H
1J
1Z
1*
16
04
0'
1u
0s
#990000
0"
0b
0c
#995000
1"
1b
1c
1g
1<!
1;!
1:!
17!
1m
0e
1T
1W
1X
1Y
1)
1(
1'
1$
