lab08/lab08_3/simulation/qsim/lab08_3.msim.vcd
$comment
	File created using the following command:
		vcd file lab08_3.msim.vcd -direction
$end
$date
	Fri Nov 29 15:24:37 2019
$end
$version
	ModelSim Version 10.5b
$end
$timescale
	1ps
$end

$scope module lab08_3_vlg_vec_tst $end
$var reg 1 ! X $end
$var reg 1 " clock $end
$var wire 1 # A $end
$var wire 1 $ B $end
$var wire 1 % Y $end

$scope module i1 $end
$var wire 1 & gnd $end
$var wire 1 ' vcc $end
$var wire 1 ( unknown $end
$var tri1 1 ) devclrn $end
$var tri1 1 * devpor $end
$var tri1 1 + devoe $end
$var wire 1 , A~output_o $end
$var wire 1 - B~output_o $end
$var wire 1 . Y~output_o $end
$var wire 1 / clock~input_o $end
$var wire 1 0 clock~inputclkctrl_outclk $end
$var wire 1 1 X~input_o $end
$var wire 1 2 B~0_combout $end
$var wire 1 3 B~reg0_q $end
$var wire 1 4 A~0_combout $end
$var wire 1 5 A~reg0_q $end
$var wire 1 6 Y~0_combout $end
$upscope $end
$upscope $end
$enddefinitions $end
#0
$dumpvars
1!
0"
0#
0$
0%
0&
1'
x(
1)
1*
1+
0,
0-
0.
0/
00
11
12
03
04
05
06
$end
#20000
1"
1/
10
13
1-
1$
14
#40000
0"
0/
00
#60000
1"
1/
10
15
1,
1#
02
#80000
0"
0/
00
#100000
1"
1/
10
03
0-
0$
#120000
0"
0/
00
#140000
1"
1/
10
#160000
0"
0/
00
#180000
0!
1"
01
1/
10
16
04
1.
1%
#200000
0"
0/
00
#220000
1"
1/
10
05
0,
0#
06
0.
0%
#240000
0"
0/
00
#260000
1"
1/
10
#280000
0"
0/
00
#300000
1"
1/
10
#320000
0"
0/
00
#340000
1"
1/
10
#360000
0"
0/
00
#380000
1"
1/
10
#400000
0"
0/
00
#420000
1"
1/
10
#440000
0"
0/
00
#460000
1"
1/
10
#480000
0"
0/
00
#500000
1"
1/
10
#520000
0"
0/
00
#540000
1"
1/
10
#560000
0"
0/
00
#580000
1"
1/
10
#600000
0"
0/
00
#620000
1"
1/
10
#640000
0"
0/
00
#660000
1"
1/
10
#680000
0"
0/
00
#700000
1"
1/
10
#720000
0"
0/
00
#740000
1"
1/
10
#760000
0"
0/
00
#780000
1"
1/
10
#800000
0"
0/
00
#820000
1"
1/
10
#840000
0"
0/
00
#860000
1"
1/
10
#880000
0"
0/
00
#900000
1"
1/
10
#920000
0"
0/
00
#940000
1"
1/
10
#960000
0"
0/
00
#980000
1"
1/
10
